EESchema Schematic File Version 4
EELAYER 30 0
EELAYER END
$Descr A4 11693 8268
encoding utf-8
Sheet 1 1
Title ""
Date ""
Rev ""
Comp ""
Comment1 ""
Comment2 ""
Comment3 ""
Comment4 ""
$EndDescr
$Comp
L Connector:AVR-ISP-6 J9
U 1 1 5EFE5F5A
P 1350 3300
F 0 "J9" H 1021 3396 50  0000 R CNN
F 1 "AVR-ISP-6" H 1021 3305 50  0000 R CNN
F 2 "Connector_PinHeader_2.54mm:PinHeader_2x03_P2.54mm_Vertical" V 1100 3350 50  0001 C CNN
F 3 " ~" H 75  2750 50  0001 C CNN
	1    1350 3300
	-1   0    0    -1  
$EndComp
$Comp
L power:GND #PWR0101
U 1 1 5EFF1BEB
P 1450 3700
F 0 "#PWR0101" H 1450 3450 50  0001 C CNN
F 1 "GND" H 1455 3527 50  0000 C CNN
F 2 "" H 1450 3700 50  0001 C CNN
F 3 "" H 1450 3700 50  0001 C CNN
	1    1450 3700
	1    0    0    -1  
$EndComp
$Comp
L power:+5V #PWR0104
U 1 1 5EFF32A5
P 1450 2800
F 0 "#PWR0104" H 1450 2650 50  0001 C CNN
F 1 "+5V" H 1465 2973 50  0000 C CNN
F 2 "" H 1450 2800 50  0001 C CNN
F 3 "" H 1450 2800 50  0001 C CNN
	1    1450 2800
	1    0    0    -1  
$EndComp
Text GLabel 950  3300 0    50   Input ~ 0
SCK
Text GLabel 950  3100 0    50   Input ~ 0
MISO
Text GLabel 950  3200 0    50   Input ~ 0
MOSI
Text GLabel 950  3400 0    50   Input ~ 0
RST
Text GLabel 7900 1750 2    50   Input ~ 0
CLK_IN
$Comp
L Device:R R13
U 1 1 5F004578
P 7000 1550
F 0 "R13" V 6793 1550 50  0000 C CNN
F 1 "10K" V 6884 1550 50  0000 C CNN
F 2 "Resistor_THT:R_Axial_DIN0207_L6.3mm_D2.5mm_P7.62mm_Horizontal" V 6930 1550 50  0001 C CNN
F 3 "~" H 7000 1550 50  0001 C CNN
	1    7000 1550
	0    1    1    0   
$EndComp
$Comp
L Transistor_BJT:2N3904 Q1
U 1 1 5F005064
P 7600 1550
F 0 "Q1" H 7790 1596 50  0000 L CNN
F 1 "2N3904" H 7790 1505 50  0000 L CNN
F 2 "Package_TO_SOT_THT:TO-92_Inline" H 7800 1475 50  0001 L CIN
F 3 "https://www.fairchildsemi.com/datasheets/2N/2N3904.pdf" H 7600 1550 50  0001 L CNN
	1    7600 1550
	1    0    0    -1  
$EndComp
$Comp
L Diode:1N4148 D1
U 1 1 5F005C2C
P 7150 1700
F 0 "D1" V 7104 1780 50  0000 L CNN
F 1 "1N4148" V 7195 1780 50  0000 L CNN
F 2 "Diode_THT:D_DO-35_SOD27_P2.54mm_Vertical_KathodeUp" H 7150 1525 50  0001 C CNN
F 3 "https://assets.nexperia.com/documents/data-sheet/1N4148_1N4448.pdf" H 7150 1700 50  0001 C CNN
	1    7150 1700
	0    1    1    0   
$EndComp
$Comp
L power:+5V #PWR0105
U 1 1 5F00737D
P 7700 1350
F 0 "#PWR0105" H 7700 1200 50  0001 C CNN
F 1 "+5V" H 7715 1523 50  0000 C CNN
F 2 "" H 7700 1350 50  0001 C CNN
F 3 "" H 7700 1350 50  0001 C CNN
	1    7700 1350
	1    0    0    -1  
$EndComp
$Comp
L Device:R R14
U 1 1 5F007957
P 7700 1900
F 0 "R14" H 7770 1946 50  0000 L CNN
F 1 "10K" H 7770 1855 50  0000 L CNN
F 2 "Resistor_THT:R_Axial_DIN0207_L6.3mm_D2.5mm_P7.62mm_Horizontal" V 7630 1900 50  0001 C CNN
F 3 "~" H 7700 1900 50  0001 C CNN
	1    7700 1900
	1    0    0    -1  
$EndComp
Wire Wire Line
	7700 1750 7900 1750
Connection ~ 7700 1750
$Comp
L power:GND #PWR0106
U 1 1 5F00A598
P 7700 2050
F 0 "#PWR0106" H 7700 1800 50  0001 C CNN
F 1 "GND" H 7705 1877 50  0000 C CNN
F 2 "" H 7700 2050 50  0001 C CNN
F 3 "" H 7700 2050 50  0001 C CNN
	1    7700 2050
	1    0    0    -1  
$EndComp
$Comp
L power:GND #PWR0107
U 1 1 5F00A991
P 7150 1850
F 0 "#PWR0107" H 7150 1600 50  0001 C CNN
F 1 "GND" H 7155 1677 50  0000 C CNN
F 2 "" H 7150 1850 50  0001 C CNN
F 3 "" H 7150 1850 50  0001 C CNN
	1    7150 1850
	1    0    0    -1  
$EndComp
Wire Wire Line
	7400 1550 7150 1550
Connection ~ 7150 1550
$Comp
L Connector:AudioJack2 J1
U 1 1 5F00C56D
P 6400 1550
F 0 "J1" H 6432 1875 50  0000 C CNN
F 1 "AudioJack2" H 6432 1784 50  0000 C CNN
F 2 "Connector_Audio:Jack_3.5mm_QingPu_WQP-PJ398SM_Vertical_CircularHoles" H 6400 1550 50  0001 C CNN
F 3 "~" H 6400 1550 50  0001 C CNN
	1    6400 1550
	1    0    0    -1  
$EndComp
$Comp
L power:GND #PWR0108
U 1 1 5F00FC2B
P 6600 1450
F 0 "#PWR0108" H 6600 1200 50  0001 C CNN
F 1 "GND" V 6605 1322 50  0000 R CNN
F 2 "" H 6600 1450 50  0001 C CNN
F 3 "" H 6600 1450 50  0001 C CNN
	1    6600 1450
	0    -1   -1   0   
$EndComp
Wire Wire Line
	6600 1550 6850 1550
$Comp
L Regulator_Linear:LM7805_TO220 U4
U 1 1 5EFF7CC6
P 3800 1350
F 0 "U4" H 3800 1592 50  0000 C CNN
F 1 "LM7805_TO220" H 3800 1501 50  0000 C CNN
F 2 "Package_TO_SOT_THT:TO-220-3_Vertical" H 3800 1575 50  0001 C CIN
F 3 "http://www.fairchildsemi.com/ds/LM/LM7805.pdf" H 3800 1300 50  0001 C CNN
	1    3800 1350
	1    0    0    -1  
$EndComp
$Comp
L power:GND #PWR0110
U 1 1 5EFFAD03
P 2100 1600
F 0 "#PWR0110" H 2100 1350 50  0001 C CNN
F 1 "GND" V 2105 1472 50  0000 R CNN
F 2 "" H 2100 1600 50  0001 C CNN
F 3 "" H 2100 1600 50  0001 C CNN
	1    2100 1600
	0    -1   -1   0   
$EndComp
Wire Wire Line
	2050 1600 2100 1600
Wire Wire Line
	1500 1500 1500 1600
Connection ~ 1500 1600
Wire Wire Line
	1500 1600 1500 1700
$Comp
L power:+12V #PWR0111
U 1 1 5EFFC209
P 3100 1150
F 0 "#PWR0111" H 3100 1000 50  0001 C CNN
F 1 "+12V" V 3115 1278 50  0000 L CNN
F 2 "" H 3100 1150 50  0001 C CNN
F 3 "" H 3100 1150 50  0001 C CNN
	1    3100 1150
	1    0    0    -1  
$EndComp
$Comp
L power:GND #PWR0112
U 1 1 5EFFCD3F
P 3800 1850
F 0 "#PWR0112" H 3800 1600 50  0001 C CNN
F 1 "GND" H 3805 1677 50  0000 C CNN
F 2 "" H 3800 1850 50  0001 C CNN
F 3 "" H 3800 1850 50  0001 C CNN
	1    3800 1850
	1    0    0    -1  
$EndComp
$Comp
L power:+5V #PWR0113
U 1 1 5EFFD289
P 4350 1150
F 0 "#PWR0113" H 4350 1000 50  0001 C CNN
F 1 "+5V" V 4365 1278 50  0000 L CNN
F 2 "" H 4350 1150 50  0001 C CNN
F 3 "" H 4350 1150 50  0001 C CNN
	1    4350 1150
	1    0    0    -1  
$EndComp
$Comp
L power:GND #PWR0114
U 1 1 5EFFE68B
P 950 1600
F 0 "#PWR0114" H 950 1350 50  0001 C CNN
F 1 "GND" V 955 1472 50  0000 R CNN
F 2 "" H 950 1600 50  0001 C CNN
F 3 "" H 950 1600 50  0001 C CNN
	1    950  1600
	0    1    1    0   
$EndComp
$Comp
L power:+12V #PWR0115
U 1 1 5EFFECA8
P 1000 1400
F 0 "#PWR0115" H 1000 1250 50  0001 C CNN
F 1 "+12V" V 1015 1528 50  0000 L CNN
F 2 "" H 1000 1400 50  0001 C CNN
F 3 "" H 1000 1400 50  0001 C CNN
	1    1000 1400
	0    -1   -1   0   
$EndComp
Wire Wire Line
	1000 1500 1000 1600
Wire Wire Line
	1000 1600 1000 1700
Connection ~ 1000 1600
Wire Wire Line
	1000 1600 950  1600
Text GLabel 6200 2950 0    50   Input ~ 0
DIV1
Wire Wire Line
	2800 2650 2700 2650
Wire Wire Line
	3750 3700 3750 3650
Wire Wire Line
	3900 3700 3750 3700
Wire Wire Line
	3750 3400 3750 3550
Wire Wire Line
	3900 3400 3750 3400
Text GLabel 3300 2950 2    50   Input ~ 0
DIV6
Text GLabel 3300 5350 2    50   Input ~ 0
DIV5
Text GLabel 3300 5250 2    50   Input ~ 0
DIV4
Text GLabel 3300 5150 2    50   Input ~ 0
DIV3
Text GLabel 3300 5050 2    50   Input ~ 0
DIV2
Text GLabel 3300 4950 2    50   Input ~ 0
DIV1
Text GLabel 3300 4850 2    50   Input ~ 0
CLK_IN
$Comp
L Device:Crystal Y1
U 1 1 5EFE63D4
P 3900 3550
F 0 "Y1" V 3854 3681 50  0000 L CNN
F 1 "Crystal 16MHz" V 3945 3681 50  0000 L CNN
F 2 "Crystal:Crystal_HC49-U_Vertical" H 3900 3550 50  0001 C CNN
F 3 "~" H 3900 3550 50  0001 C CNN
	1    3900 3550
	0    1    1    0   
$EndComp
Text GLabel 3300 4450 2    50   Input ~ 0
RST
Text GLabel 3300 3250 2    50   Input ~ 0
MOSI
Text GLabel 3300 3350 2    50   Input ~ 0
MISO
Text GLabel 3300 3450 2    50   Input ~ 0
SCK
$Comp
L power:+5V #PWR0103
U 1 1 5EFF2E09
P 2700 2650
F 0 "#PWR0103" H 2700 2500 50  0001 C CNN
F 1 "+5V" H 2715 2823 50  0000 C CNN
F 2 "" H 2700 2650 50  0001 C CNN
F 3 "" H 2700 2650 50  0001 C CNN
	1    2700 2650
	1    0    0    -1  
$EndComp
$Comp
L power:GND #PWR0102
U 1 1 5EFF1F3B
P 2700 5650
F 0 "#PWR0102" H 2700 5400 50  0001 C CNN
F 1 "GND" H 2705 5477 50  0000 C CNN
F 2 "" H 2700 5650 50  0001 C CNN
F 3 "" H 2700 5650 50  0001 C CNN
	1    2700 5650
	1    0    0    -1  
$EndComp
$Comp
L MCU_Microchip_ATmega:ATmega328P-PU U2
U 1 1 5EFE2CE4
P 2700 4150
F 0 "U2" H 2056 4196 50  0000 R CNN
F 1 "ATmega328P-PU" H 2056 4105 50  0000 R CNN
F 2 "Package_DIP:DIP-28_W7.62mm" H 2700 4150 50  0001 C CIN
F 3 "http://ww1.microchip.com/downloads/en/DeviceDoc/ATmega328_P%20AVR%20MCU%20with%20picoPower%20Technology%20Data%20Sheet%2040001984A.pdf" H 2700 4150 50  0001 C CNN
	1    2700 4150
	1    0    0    -1  
$EndComp
NoConn ~ 1000 1800
$Comp
L power:GND #PWR0116
U 1 1 5F01169D
P 7800 3050
F 0 "#PWR0116" H 7800 2800 50  0001 C CNN
F 1 "GND" H 7805 2877 50  0000 C CNN
F 2 "" H 7800 3050 50  0001 C CNN
F 3 "" H 7800 3050 50  0001 C CNN
	1    7800 3050
	0    1    1    0   
$EndComp
$Comp
L Connector:AudioJack2 J3
U 1 1 5F011064
P 8000 2950
F 0 "J3" H 8032 3275 50  0000 C CNN
F 1 "AudioJack2" H 8032 3184 50  0000 C CNN
F 2 "Connector_Audio:Jack_3.5mm_QingPu_WQP-PJ398SM_Vertical_CircularHoles" H 8000 2950 50  0001 C CNN
F 3 "~" H 8000 2950 50  0001 C CNN
	1    8000 2950
	-1   0    0    1   
$EndComp
Wire Wire Line
	7800 2950 7100 2950
Connection ~ 2700 2650
Wire Wire Line
	3300 3650 3750 3650
Wire Wire Line
	3300 3550 3750 3550
$Comp
L Device:D_Schottky D5
U 1 1 5F0F1B46
P 7100 2800
F 0 "D5" V 7054 2880 50  0000 L CNN
F 1 "D_Schottky" V 7145 2880 50  0000 L CNN
F 2 "Diode_THT:D_DO-35_SOD27_P2.54mm_Vertical_KathodeUp" H 7100 2800 50  0001 C CNN
F 3 "~" H 7100 2800 50  0001 C CNN
	1    7100 2800
	0    1    1    0   
$EndComp
Connection ~ 7100 2950
Wire Wire Line
	7100 2950 6950 2950
$Comp
L Device:D_Schottky D6
U 1 1 5F0F2966
P 7100 3100
F 0 "D6" V 7054 3180 50  0000 L CNN
F 1 "D_Schottky" V 7145 3180 50  0000 L CNN
F 2 "Diode_THT:D_DO-35_SOD27_P2.54mm_Vertical_KathodeUp" H 7100 3100 50  0001 C CNN
F 3 "~" H 7100 3100 50  0001 C CNN
	1    7100 3100
	0    1    1    0   
$EndComp
$Comp
L power:+5V #PWR04
U 1 1 5F0F3574
P 7100 2650
F 0 "#PWR04" H 7100 2500 50  0001 C CNN
F 1 "+5V" H 7115 2823 50  0000 C CNN
F 2 "" H 7100 2650 50  0001 C CNN
F 3 "" H 7100 2650 50  0001 C CNN
	1    7100 2650
	1    0    0    -1  
$EndComp
$Comp
L power:GND #PWR05
U 1 1 5F0F3BC0
P 7100 3250
F 0 "#PWR05" H 7100 3000 50  0001 C CNN
F 1 "GND" H 7105 3077 50  0000 C CNN
F 2 "" H 7100 3250 50  0001 C CNN
F 3 "" H 7100 3250 50  0001 C CNN
	1    7100 3250
	1    0    0    -1  
$EndComp
$Comp
L Device:R R2
U 1 1 5F0F459C
P 6800 2950
F 0 "R2" V 6593 2950 50  0000 C CNN
F 1 "1K" V 6684 2950 50  0000 C CNN
F 2 "Resistor_THT:R_Axial_DIN0207_L6.3mm_D2.5mm_P7.62mm_Horizontal" V 6730 2950 50  0001 C CNN
F 3 "~" H 6800 2950 50  0001 C CNN
	1    6800 2950
	0    1    1    0   
$EndComp
Wire Wire Line
	6650 2950 6550 2950
$Comp
L Device:R R1
U 1 1 5F0F4C77
P 6550 3100
F 0 "R1" H 6620 3146 50  0000 L CNN
F 1 "1K" H 6620 3055 50  0000 L CNN
F 2 "Resistor_THT:R_Axial_DIN0207_L6.3mm_D2.5mm_P7.62mm_Horizontal" V 6480 3100 50  0001 C CNN
F 3 "~" H 6550 3100 50  0001 C CNN
	1    6550 3100
	1    0    0    -1  
$EndComp
Connection ~ 6550 2950
Wire Wire Line
	6550 2950 6200 2950
$Comp
L Device:LED D2
U 1 1 5F0F5420
P 6550 3400
F 0 "D2" V 6497 3480 50  0000 L CNN
F 1 "LED" V 6588 3480 50  0000 L CNN
F 2 "LED_THT:LED_D5.0mm" H 6550 3400 50  0001 C CNN
F 3 "~" H 6550 3400 50  0001 C CNN
	1    6550 3400
	0    -1   -1   0   
$EndComp
$Comp
L power:GND #PWR01
U 1 1 5F0F9DFB
P 6550 3550
F 0 "#PWR01" H 6550 3300 50  0001 C CNN
F 1 "GND" H 6555 3377 50  0000 C CNN
F 2 "" H 6550 3550 50  0001 C CNN
F 3 "" H 6550 3550 50  0001 C CNN
	1    6550 3550
	1    0    0    -1  
$EndComp
Text GLabel 6200 4000 0    50   Input ~ 0
DIV2
$Comp
L power:GND #PWR011
U 1 1 5F129BDC
P 7800 4100
F 0 "#PWR011" H 7800 3850 50  0001 C CNN
F 1 "GND" H 7805 3927 50  0000 C CNN
F 2 "" H 7800 4100 50  0001 C CNN
F 3 "" H 7800 4100 50  0001 C CNN
	1    7800 4100
	0    1    1    0   
$EndComp
$Comp
L Connector:AudioJack2 J4
U 1 1 5F129BE2
P 8000 4000
F 0 "J4" H 8032 4325 50  0000 C CNN
F 1 "AudioJack2" H 8032 4234 50  0000 C CNN
F 2 "Connector_Audio:Jack_3.5mm_QingPu_WQP-PJ398SM_Vertical_CircularHoles" H 8000 4000 50  0001 C CNN
F 3 "~" H 8000 4000 50  0001 C CNN
	1    8000 4000
	-1   0    0    1   
$EndComp
Wire Wire Line
	7800 4000 7100 4000
$Comp
L Device:D_Schottky D7
U 1 1 5F129BE9
P 7100 3850
F 0 "D7" V 7054 3930 50  0000 L CNN
F 1 "D_Schottky" V 7145 3930 50  0000 L CNN
F 2 "Diode_THT:D_DO-35_SOD27_P2.54mm_Vertical_KathodeUp" H 7100 3850 50  0001 C CNN
F 3 "~" H 7100 3850 50  0001 C CNN
	1    7100 3850
	0    1    1    0   
$EndComp
Connection ~ 7100 4000
Wire Wire Line
	7100 4000 6950 4000
$Comp
L Device:D_Schottky D8
U 1 1 5F129BF1
P 7100 4150
F 0 "D8" V 7054 4230 50  0000 L CNN
F 1 "D_Schottky" V 7145 4230 50  0000 L CNN
F 2 "Diode_THT:D_DO-35_SOD27_P2.54mm_Vertical_KathodeUp" H 7100 4150 50  0001 C CNN
F 3 "~" H 7100 4150 50  0001 C CNN
	1    7100 4150
	0    1    1    0   
$EndComp
$Comp
L power:+5V #PWR06
U 1 1 5F129BF7
P 7100 3700
F 0 "#PWR06" H 7100 3550 50  0001 C CNN
F 1 "+5V" H 7115 3873 50  0000 C CNN
F 2 "" H 7100 3700 50  0001 C CNN
F 3 "" H 7100 3700 50  0001 C CNN
	1    7100 3700
	1    0    0    -1  
$EndComp
$Comp
L power:GND #PWR07
U 1 1 5F129BFD
P 7100 4300
F 0 "#PWR07" H 7100 4050 50  0001 C CNN
F 1 "GND" H 7105 4127 50  0000 C CNN
F 2 "" H 7100 4300 50  0001 C CNN
F 3 "" H 7100 4300 50  0001 C CNN
	1    7100 4300
	1    0    0    -1  
$EndComp
$Comp
L Device:R R4
U 1 1 5F129C03
P 6800 4000
F 0 "R4" V 6593 4000 50  0000 C CNN
F 1 "1K" V 6684 4000 50  0000 C CNN
F 2 "Resistor_THT:R_Axial_DIN0207_L6.3mm_D2.5mm_P7.62mm_Horizontal" V 6730 4000 50  0001 C CNN
F 3 "~" H 6800 4000 50  0001 C CNN
	1    6800 4000
	0    1    1    0   
$EndComp
Wire Wire Line
	6650 4000 6550 4000
$Comp
L Device:R R3
U 1 1 5F129C0A
P 6550 4150
F 0 "R3" H 6620 4196 50  0000 L CNN
F 1 "1K" H 6620 4105 50  0000 L CNN
F 2 "Resistor_THT:R_Axial_DIN0207_L6.3mm_D2.5mm_P7.62mm_Horizontal" V 6480 4150 50  0001 C CNN
F 3 "~" H 6550 4150 50  0001 C CNN
	1    6550 4150
	1    0    0    -1  
$EndComp
Connection ~ 6550 4000
Wire Wire Line
	6550 4000 6200 4000
$Comp
L Device:LED D3
U 1 1 5F129C12
P 6550 4450
F 0 "D3" V 6497 4530 50  0000 L CNN
F 1 "LED" V 6588 4530 50  0000 L CNN
F 2 "LED_THT:LED_D5.0mm" H 6550 4450 50  0001 C CNN
F 3 "~" H 6550 4450 50  0001 C CNN
	1    6550 4450
	0    -1   -1   0   
$EndComp
$Comp
L power:GND #PWR02
U 1 1 5F129C18
P 6550 4600
F 0 "#PWR02" H 6550 4350 50  0001 C CNN
F 1 "GND" H 6555 4427 50  0000 C CNN
F 2 "" H 6550 4600 50  0001 C CNN
F 3 "" H 6550 4600 50  0001 C CNN
	1    6550 4600
	1    0    0    -1  
$EndComp
Text GLabel 6200 5050 0    50   Input ~ 0
DIV3
$Comp
L power:GND #PWR012
U 1 1 5F12B6B5
P 7800 5150
F 0 "#PWR012" H 7800 4900 50  0001 C CNN
F 1 "GND" H 7805 4977 50  0000 C CNN
F 2 "" H 7800 5150 50  0001 C CNN
F 3 "" H 7800 5150 50  0001 C CNN
	1    7800 5150
	0    1    1    0   
$EndComp
$Comp
L Connector:AudioJack2 J5
U 1 1 5F12B6BB
P 8000 5050
F 0 "J5" H 8032 5375 50  0000 C CNN
F 1 "AudioJack2" H 8032 5284 50  0000 C CNN
F 2 "Connector_Audio:Jack_3.5mm_QingPu_WQP-PJ398SM_Vertical_CircularHoles" H 8000 5050 50  0001 C CNN
F 3 "~" H 8000 5050 50  0001 C CNN
	1    8000 5050
	-1   0    0    1   
$EndComp
Wire Wire Line
	7800 5050 7100 5050
$Comp
L Device:D_Schottky D9
U 1 1 5F12B6C2
P 7100 4900
F 0 "D9" V 7054 4980 50  0000 L CNN
F 1 "D_Schottky" V 7145 4980 50  0000 L CNN
F 2 "Diode_THT:D_DO-35_SOD27_P2.54mm_Vertical_KathodeUp" H 7100 4900 50  0001 C CNN
F 3 "~" H 7100 4900 50  0001 C CNN
	1    7100 4900
	0    1    1    0   
$EndComp
Connection ~ 7100 5050
Wire Wire Line
	7100 5050 6950 5050
$Comp
L Device:D_Schottky D10
U 1 1 5F12B6CA
P 7100 5200
F 0 "D10" V 7054 5280 50  0000 L CNN
F 1 "D_Schottky" V 7145 5280 50  0000 L CNN
F 2 "Diode_THT:D_DO-35_SOD27_P2.54mm_Vertical_KathodeUp" H 7100 5200 50  0001 C CNN
F 3 "~" H 7100 5200 50  0001 C CNN
	1    7100 5200
	0    1    1    0   
$EndComp
$Comp
L power:+5V #PWR08
U 1 1 5F12B6D0
P 7100 4750
F 0 "#PWR08" H 7100 4600 50  0001 C CNN
F 1 "+5V" H 7115 4923 50  0000 C CNN
F 2 "" H 7100 4750 50  0001 C CNN
F 3 "" H 7100 4750 50  0001 C CNN
	1    7100 4750
	1    0    0    -1  
$EndComp
$Comp
L Device:R R6
U 1 1 5F12B6DC
P 6800 5050
F 0 "R6" V 6593 5050 50  0000 C CNN
F 1 "1K" V 6684 5050 50  0000 C CNN
F 2 "Resistor_THT:R_Axial_DIN0207_L6.3mm_D2.5mm_P7.62mm_Horizontal" V 6730 5050 50  0001 C CNN
F 3 "~" H 6800 5050 50  0001 C CNN
	1    6800 5050
	0    1    1    0   
$EndComp
Wire Wire Line
	6650 5050 6550 5050
$Comp
L Device:R R5
U 1 1 5F12B6E3
P 6550 5200
F 0 "R5" H 6620 5246 50  0000 L CNN
F 1 "1K" H 6620 5155 50  0000 L CNN
F 2 "Resistor_THT:R_Axial_DIN0207_L6.3mm_D2.5mm_P7.62mm_Horizontal" V 6480 5200 50  0001 C CNN
F 3 "~" H 6550 5200 50  0001 C CNN
	1    6550 5200
	1    0    0    -1  
$EndComp
Connection ~ 6550 5050
Wire Wire Line
	6550 5050 6200 5050
$Comp
L Device:LED D4
U 1 1 5F12B6EB
P 6550 5500
F 0 "D4" V 6497 5580 50  0000 L CNN
F 1 "LED" V 6588 5580 50  0000 L CNN
F 2 "LED_THT:LED_D5.0mm" H 6550 5500 50  0001 C CNN
F 3 "~" H 6550 5500 50  0001 C CNN
	1    6550 5500
	0    -1   -1   0   
$EndComp
$Comp
L power:GND #PWR03
U 1 1 5F12B6F1
P 6550 5650
F 0 "#PWR03" H 6550 5400 50  0001 C CNN
F 1 "GND" H 6555 5477 50  0000 C CNN
F 2 "" H 6550 5650 50  0001 C CNN
F 3 "" H 6550 5650 50  0001 C CNN
	1    6550 5650
	1    0    0    -1  
$EndComp
Text GLabel 8500 2950 0    50   Input ~ 0
DIV4
$Comp
L power:GND #PWR021
U 1 1 5F12EC6A
P 10100 3050
F 0 "#PWR021" H 10100 2800 50  0001 C CNN
F 1 "GND" H 10105 2877 50  0000 C CNN
F 2 "" H 10100 3050 50  0001 C CNN
F 3 "" H 10100 3050 50  0001 C CNN
	1    10100 3050
	0    1    1    0   
$EndComp
$Comp
L Connector:AudioJack2 J6
U 1 1 5F12EC70
P 10300 2950
F 0 "J6" H 10332 3275 50  0000 C CNN
F 1 "AudioJack2" H 10332 3184 50  0000 C CNN
F 2 "Connector_Audio:Jack_3.5mm_QingPu_WQP-PJ398SM_Vertical_CircularHoles" H 10300 2950 50  0001 C CNN
F 3 "~" H 10300 2950 50  0001 C CNN
	1    10300 2950
	-1   0    0    1   
$EndComp
Wire Wire Line
	10100 2950 9400 2950
$Comp
L Device:D_Schottky D14
U 1 1 5F12EC77
P 9400 2800
F 0 "D14" V 9354 2880 50  0000 L CNN
F 1 "D_Schottky" V 9445 2880 50  0000 L CNN
F 2 "Diode_THT:D_DO-35_SOD27_P2.54mm_Vertical_KathodeUp" H 9400 2800 50  0001 C CNN
F 3 "~" H 9400 2800 50  0001 C CNN
	1    9400 2800
	0    1    1    0   
$EndComp
Connection ~ 9400 2950
Wire Wire Line
	9400 2950 9250 2950
$Comp
L Device:D_Schottky D15
U 1 1 5F12EC7F
P 9400 3100
F 0 "D15" V 9354 3180 50  0000 L CNN
F 1 "D_Schottky" V 9445 3180 50  0000 L CNN
F 2 "Diode_THT:D_DO-35_SOD27_P2.54mm_Vertical_KathodeUp" H 9400 3100 50  0001 C CNN
F 3 "~" H 9400 3100 50  0001 C CNN
	1    9400 3100
	0    1    1    0   
$EndComp
$Comp
L power:+5V #PWR010
U 1 1 5F12EC85
P 9400 2650
F 0 "#PWR010" H 9400 2500 50  0001 C CNN
F 1 "+5V" H 9415 2823 50  0000 C CNN
F 2 "" H 9400 2650 50  0001 C CNN
F 3 "" H 9400 2650 50  0001 C CNN
	1    9400 2650
	1    0    0    -1  
$EndComp
$Comp
L power:GND #PWR016
U 1 1 5F12EC8B
P 9400 3250
F 0 "#PWR016" H 9400 3000 50  0001 C CNN
F 1 "GND" H 9405 3077 50  0000 C CNN
F 2 "" H 9400 3250 50  0001 C CNN
F 3 "" H 9400 3250 50  0001 C CNN
	1    9400 3250
	1    0    0    -1  
$EndComp
$Comp
L Device:R R8
U 1 1 5F12EC91
P 9100 2950
F 0 "R8" V 8893 2950 50  0000 C CNN
F 1 "1K" V 8984 2950 50  0000 C CNN
F 2 "Resistor_THT:R_Axial_DIN0207_L6.3mm_D2.5mm_P7.62mm_Horizontal" V 9030 2950 50  0001 C CNN
F 3 "~" H 9100 2950 50  0001 C CNN
	1    9100 2950
	0    1    1    0   
$EndComp
Wire Wire Line
	8950 2950 8850 2950
$Comp
L Device:R R7
U 1 1 5F12EC98
P 8850 3100
F 0 "R7" H 8920 3146 50  0000 L CNN
F 1 "1K" H 8920 3055 50  0000 L CNN
F 2 "Resistor_THT:R_Axial_DIN0207_L6.3mm_D2.5mm_P7.62mm_Horizontal" V 8780 3100 50  0001 C CNN
F 3 "~" H 8850 3100 50  0001 C CNN
	1    8850 3100
	1    0    0    -1  
$EndComp
Connection ~ 8850 2950
Wire Wire Line
	8850 2950 8500 2950
$Comp
L Device:LED D11
U 1 1 5F12ECA0
P 8850 3400
F 0 "D11" V 8797 3480 50  0000 L CNN
F 1 "LED" V 8888 3480 50  0000 L CNN
F 2 "LED_THT:LED_D5.0mm" H 8850 3400 50  0001 C CNN
F 3 "~" H 8850 3400 50  0001 C CNN
	1    8850 3400
	0    -1   -1   0   
$EndComp
$Comp
L power:GND #PWR013
U 1 1 5F12ECA6
P 8850 3550
F 0 "#PWR013" H 8850 3300 50  0001 C CNN
F 1 "GND" H 8855 3377 50  0000 C CNN
F 2 "" H 8850 3550 50  0001 C CNN
F 3 "" H 8850 3550 50  0001 C CNN
	1    8850 3550
	1    0    0    -1  
$EndComp
Text GLabel 8500 4000 0    50   Input ~ 0
DIV5
$Comp
L power:GND #PWR022
U 1 1 5F143760
P 10100 4100
F 0 "#PWR022" H 10100 3850 50  0001 C CNN
F 1 "GND" H 10105 3927 50  0000 C CNN
F 2 "" H 10100 4100 50  0001 C CNN
F 3 "" H 10100 4100 50  0001 C CNN
	1    10100 4100
	0    1    1    0   
$EndComp
$Comp
L Connector:AudioJack2 J7
U 1 1 5F143766
P 10300 4000
F 0 "J7" H 10332 4325 50  0000 C CNN
F 1 "AudioJack2" H 10332 4234 50  0000 C CNN
F 2 "Connector_Audio:Jack_3.5mm_QingPu_WQP-PJ398SM_Vertical_CircularHoles" H 10300 4000 50  0001 C CNN
F 3 "~" H 10300 4000 50  0001 C CNN
	1    10300 4000
	-1   0    0    1   
$EndComp
Wire Wire Line
	10100 4000 9400 4000
$Comp
L Device:D_Schottky D16
U 1 1 5F14376D
P 9400 3850
F 0 "D16" V 9354 3930 50  0000 L CNN
F 1 "D_Schottky" V 9445 3930 50  0000 L CNN
F 2 "Diode_THT:D_DO-35_SOD27_P2.54mm_Vertical_KathodeUp" H 9400 3850 50  0001 C CNN
F 3 "~" H 9400 3850 50  0001 C CNN
	1    9400 3850
	0    1    1    0   
$EndComp
Connection ~ 9400 4000
Wire Wire Line
	9400 4000 9250 4000
$Comp
L Device:D_Schottky D17
U 1 1 5F143775
P 9400 4150
F 0 "D17" V 9354 4230 50  0000 L CNN
F 1 "D_Schottky" V 9445 4230 50  0000 L CNN
F 2 "Diode_THT:D_DO-35_SOD27_P2.54mm_Vertical_KathodeUp" H 9400 4150 50  0001 C CNN
F 3 "~" H 9400 4150 50  0001 C CNN
	1    9400 4150
	0    1    1    0   
$EndComp
$Comp
L power:+5V #PWR017
U 1 1 5F14377B
P 9400 3700
F 0 "#PWR017" H 9400 3550 50  0001 C CNN
F 1 "+5V" H 9415 3873 50  0000 C CNN
F 2 "" H 9400 3700 50  0001 C CNN
F 3 "" H 9400 3700 50  0001 C CNN
	1    9400 3700
	1    0    0    -1  
$EndComp
$Comp
L power:GND #PWR018
U 1 1 5F143781
P 9400 4300
F 0 "#PWR018" H 9400 4050 50  0001 C CNN
F 1 "GND" H 9405 4127 50  0000 C CNN
F 2 "" H 9400 4300 50  0001 C CNN
F 3 "" H 9400 4300 50  0001 C CNN
	1    9400 4300
	1    0    0    -1  
$EndComp
$Comp
L Device:R R10
U 1 1 5F143787
P 9100 4000
F 0 "R10" V 8893 4000 50  0000 C CNN
F 1 "1K" V 8984 4000 50  0000 C CNN
F 2 "Resistor_THT:R_Axial_DIN0207_L6.3mm_D2.5mm_P7.62mm_Horizontal" V 9030 4000 50  0001 C CNN
F 3 "~" H 9100 4000 50  0001 C CNN
	1    9100 4000
	0    1    1    0   
$EndComp
Wire Wire Line
	8950 4000 8850 4000
$Comp
L Device:R R9
U 1 1 5F14378E
P 8850 4150
F 0 "R9" H 8920 4196 50  0000 L CNN
F 1 "1K" H 8920 4105 50  0000 L CNN
F 2 "Resistor_THT:R_Axial_DIN0207_L6.3mm_D2.5mm_P7.62mm_Horizontal" V 8780 4150 50  0001 C CNN
F 3 "~" H 8850 4150 50  0001 C CNN
	1    8850 4150
	1    0    0    -1  
$EndComp
Connection ~ 8850 4000
Wire Wire Line
	8850 4000 8500 4000
$Comp
L Device:LED D12
U 1 1 5F143796
P 8850 4450
F 0 "D12" V 8797 4530 50  0000 L CNN
F 1 "LED" V 8888 4530 50  0000 L CNN
F 2 "LED_THT:LED_D5.0mm" H 8850 4450 50  0001 C CNN
F 3 "~" H 8850 4450 50  0001 C CNN
	1    8850 4450
	0    -1   -1   0   
$EndComp
$Comp
L power:GND #PWR014
U 1 1 5F14379C
P 8850 4600
F 0 "#PWR014" H 8850 4350 50  0001 C CNN
F 1 "GND" H 8855 4427 50  0000 C CNN
F 2 "" H 8850 4600 50  0001 C CNN
F 3 "" H 8850 4600 50  0001 C CNN
	1    8850 4600
	1    0    0    -1  
$EndComp
Text GLabel 8500 5050 0    50   Input ~ 0
DIV6
$Comp
L power:GND #PWR023
U 1 1 5F1718C7
P 10100 5150
F 0 "#PWR023" H 10100 4900 50  0001 C CNN
F 1 "GND" H 10105 4977 50  0000 C CNN
F 2 "" H 10100 5150 50  0001 C CNN
F 3 "" H 10100 5150 50  0001 C CNN
	1    10100 5150
	0    1    1    0   
$EndComp
$Comp
L Connector:AudioJack2 J8
U 1 1 5F1718CD
P 10300 5050
F 0 "J8" H 10332 5375 50  0000 C CNN
F 1 "AudioJack2" H 10332 5284 50  0000 C CNN
F 2 "Connector_Audio:Jack_3.5mm_QingPu_WQP-PJ398SM_Vertical_CircularHoles" H 10300 5050 50  0001 C CNN
F 3 "~" H 10300 5050 50  0001 C CNN
	1    10300 5050
	-1   0    0    1   
$EndComp
Wire Wire Line
	10100 5050 9400 5050
$Comp
L Device:D_Schottky D18
U 1 1 5F1718D4
P 9400 4900
F 0 "D18" V 9354 4980 50  0000 L CNN
F 1 "D_Schottky" V 9445 4980 50  0000 L CNN
F 2 "Diode_THT:D_DO-35_SOD27_P2.54mm_Vertical_KathodeUp" H 9400 4900 50  0001 C CNN
F 3 "~" H 9400 4900 50  0001 C CNN
	1    9400 4900
	0    1    1    0   
$EndComp
Connection ~ 9400 5050
Wire Wire Line
	9400 5050 9250 5050
$Comp
L Device:D_Schottky D19
U 1 1 5F1718DC
P 9400 5200
F 0 "D19" V 9354 5280 50  0000 L CNN
F 1 "D_Schottky" V 9445 5280 50  0000 L CNN
F 2 "Diode_THT:D_DO-35_SOD27_P2.54mm_Vertical_KathodeUp" H 9400 5200 50  0001 C CNN
F 3 "~" H 9400 5200 50  0001 C CNN
	1    9400 5200
	0    1    1    0   
$EndComp
$Comp
L power:+5V #PWR019
U 1 1 5F1718E2
P 9400 4750
F 0 "#PWR019" H 9400 4600 50  0001 C CNN
F 1 "+5V" H 9415 4923 50  0000 C CNN
F 2 "" H 9400 4750 50  0001 C CNN
F 3 "" H 9400 4750 50  0001 C CNN
	1    9400 4750
	1    0    0    -1  
$EndComp
$Comp
L power:GND #PWR020
U 1 1 5F1718E8
P 9400 5350
F 0 "#PWR020" H 9400 5100 50  0001 C CNN
F 1 "GND" H 9405 5177 50  0000 C CNN
F 2 "" H 9400 5350 50  0001 C CNN
F 3 "" H 9400 5350 50  0001 C CNN
	1    9400 5350
	1    0    0    -1  
$EndComp
$Comp
L Device:R R12
U 1 1 5F1718EE
P 9100 5050
F 0 "R12" V 8893 5050 50  0000 C CNN
F 1 "1K" V 8984 5050 50  0000 C CNN
F 2 "Resistor_THT:R_Axial_DIN0207_L6.3mm_D2.5mm_P7.62mm_Horizontal" V 9030 5050 50  0001 C CNN
F 3 "~" H 9100 5050 50  0001 C CNN
	1    9100 5050
	0    1    1    0   
$EndComp
Wire Wire Line
	8950 5050 8850 5050
$Comp
L Device:R R11
U 1 1 5F1718F5
P 8850 5200
F 0 "R11" H 8920 5246 50  0000 L CNN
F 1 "1K" H 8920 5155 50  0000 L CNN
F 2 "Resistor_THT:R_Axial_DIN0207_L6.3mm_D2.5mm_P7.62mm_Horizontal" V 8780 5200 50  0001 C CNN
F 3 "~" H 8850 5200 50  0001 C CNN
	1    8850 5200
	1    0    0    -1  
$EndComp
Connection ~ 8850 5050
Wire Wire Line
	8850 5050 8500 5050
$Comp
L Device:LED D13
U 1 1 5F1718FD
P 8850 5500
F 0 "D13" V 8797 5580 50  0000 L CNN
F 1 "LED" V 8888 5580 50  0000 L CNN
F 2 "LED_THT:LED_D5.0mm" H 8850 5500 50  0001 C CNN
F 3 "~" H 8850 5500 50  0001 C CNN
	1    8850 5500
	0    -1   -1   0   
$EndComp
$Comp
L power:GND #PWR015
U 1 1 5F171903
P 8850 5650
F 0 "#PWR015" H 8850 5400 50  0001 C CNN
F 1 "GND" H 8855 5477 50  0000 C CNN
F 2 "" H 8850 5650 50  0001 C CNN
F 3 "" H 8850 5650 50  0001 C CNN
	1    8850 5650
	1    0    0    -1  
$EndComp
$Comp
L pspice:C C2
U 1 1 5F0B4482
P 3200 1600
F 0 "C2" H 3378 1646 50  0000 L CNN
F 1 "100nF" H 3378 1555 50  0000 L CNN
F 2 "Capacitor_THT:C_Disc_D3.0mm_W1.6mm_P2.50mm" H 3200 1600 50  0001 C CNN
F 3 "~" H 3200 1600 50  0001 C CNN
	1    3200 1600
	1    0    0    -1  
$EndComp
$Comp
L Device:CP C1
U 1 1 5F0C42E1
P 2750 1500
F 0 "C1" H 2868 1546 50  0000 L CNN
F 1 "10uF" H 2868 1455 50  0000 L CNN
F 2 "Capacitor_THT:CP_Radial_D4.0mm_P2.00mm" H 2788 1350 50  0001 C CNN
F 3 "~" H 2750 1500 50  0001 C CNN
	1    2750 1500
	1    0    0    -1  
$EndComp
$Comp
L Device:CP C4
U 1 1 5F0D0D77
P 4750 1500
F 0 "C4" H 4868 1546 50  0000 L CNN
F 1 "10uF" H 4868 1455 50  0000 L CNN
F 2 "Capacitor_THT:CP_Radial_D4.0mm_P2.00mm" H 4788 1350 50  0001 C CNN
F 3 "~" H 4750 1500 50  0001 C CNN
	1    4750 1500
	1    0    0    -1  
$EndComp
Connection ~ 3200 1350
Wire Wire Line
	3200 1350 3100 1350
Wire Wire Line
	3100 1150 3100 1350
Connection ~ 3100 1350
Wire Wire Line
	4350 1150 4350 1350
Wire Wire Line
	3200 1850 3800 1850
Connection ~ 3800 1850
Wire Wire Line
	2750 1650 2750 1850
Wire Wire Line
	2750 1850 3200 1850
Connection ~ 3200 1850
Wire Wire Line
	4750 1850 4750 1650
Wire Wire Line
	3800 1650 3800 1850
$Comp
L pspice:C C3
U 1 1 5F0E86A7
P 4200 1600
F 0 "C3" H 4378 1646 50  0000 L CNN
F 1 "100nF" H 4378 1555 50  0000 L CNN
F 2 "Capacitor_THT:C_Disc_D3.0mm_W1.6mm_P2.50mm" H 4200 1600 50  0001 C CNN
F 3 "~" H 4200 1600 50  0001 C CNN
	1    4200 1600
	1    0    0    -1  
$EndComp
Wire Wire Line
	4100 1350 4200 1350
Connection ~ 4350 1350
Connection ~ 4200 1350
Wire Wire Line
	4200 1350 4350 1350
NoConn ~ 1500 1800
NoConn ~ 650  -4650
NoConn ~ 3300 4650
NoConn ~ 3300 4750
NoConn ~ 3300 4250
NoConn ~ 3300 4350
Wire Wire Line
	3800 1850 4200 1850
Wire Wire Line
	4750 1850 4200 1850
Connection ~ 4200 1850
NoConn ~ 3300 4150
NoConn ~ 3300 4050
NoConn ~ 3300 3950
NoConn ~ 3300 3850
NoConn ~ 3300 3150
NoConn ~ 3300 3050
NoConn ~ 2100 2950
$Comp
L power:GND #PWR0117
U 1 1 5F0E5AEF
P 7100 5350
F 0 "#PWR0117" H 7100 5100 50  0001 C CNN
F 1 "GND" H 7105 5177 50  0000 C CNN
F 2 "" H 7100 5350 50  0001 C CNN
F 3 "" H 7100 5350 50  0001 C CNN
	1    7100 5350
	1    0    0    -1  
$EndComp
Wire Wire Line
	3500 1350 3200 1350
$Comp
L power:+12V #PWR0109
U 1 1 5F0F4C1D
P 2050 1400
F 0 "#PWR0109" H 2050 1250 50  0001 C CNN
F 1 "+12V" V 2065 1528 50  0000 L CNN
F 2 "" H 2050 1400 50  0001 C CNN
F 3 "" H 2050 1400 50  0001 C CNN
	1    2050 1400
	0    1    1    0   
$EndComp
Wire Wire Line
	4350 1350 4750 1350
Wire Wire Line
	2750 1350 3100 1350
$Comp
L power:PWR_FLAG #FLG0101
U 1 1 5F1044FB
P 2050 1400
F 0 "#FLG0101" H 2050 1475 50  0001 C CNN
F 1 "PWR_FLAG" H 2050 1573 50  0000 C CNN
F 2 "" H 2050 1400 50  0001 C CNN
F 3 "~" H 2050 1400 50  0001 C CNN
	1    2050 1400
	1    0    0    -1  
$EndComp
$Comp
L power:PWR_FLAG #FLG0102
U 1 1 5F10510E
P 2050 1600
F 0 "#FLG0102" H 2050 1675 50  0001 C CNN
F 1 "PWR_FLAG" H 2050 1773 50  0000 C CNN
F 2 "" H 2050 1600 50  0001 C CNN
F 3 "~" H 2050 1600 50  0001 C CNN
	1    2050 1600
	-1   0    0    1   
$EndComp
Wire Wire Line
	1500 1400 2050 1400
Connection ~ 2050 1400
Wire Wire Line
	2050 1600 1500 1600
Connection ~ 2050 1600
$Comp
L Connector_Generic:Conn_02x05_Odd_Even J2
U 1 1 5F11812B
P 1200 1600
F 0 "J2" H 1250 2017 50  0000 C CNN
F 1 "Conn_02x05_Odd_Even" H 1250 1926 50  0000 C CNN
F 2 "Connector_PinHeader_2.54mm:PinHeader_2x05_P2.54mm_Vertical" H 1200 1600 50  0001 C CNN
F 3 "~" H 1200 1600 50  0001 C CNN
	1    1200 1600
	1    0    0    -1  
$EndComp
$EndSCHEMATC
